strict digraph  {
	1 -> 5	 [iter=1,
		weight=1];
	3 -> 4	 [iter=1,
		weight=1];
	5 -> 7	 [iter=1,
		weight=1];
	5 -> 15	 [iter=1,
		weight="0.7"];
	6 -> 3	 [iter=1,
		weight=1];
	7 -> 16	 [iter=1,
		weight=1];
	9 -> 10	 [iter=1,
		weight="0.3"];
	10 -> 11	 [iter=1,
		weight="0.3"];
	11 -> 12	 [iter=1,
		weight="0.3"];
	12 -> 58	 [iter=1,
		weight=1];
	14 -> 6	 [iter=1,
		weight=1];
	15 -> 6	 [iter=1,
		weight=1];
	16 -> 17	 [iter=1,
		weight=1];
	17 -> 20	 [iter=1,
		weight=1];
	19 -> 9	 [iter=1,
		weight=1];
	20 -> 22	 [iter=1,
		weight=1];
	20 -> 32	 [iter=1,
		weight="0.5"];
	21 -> 19	 [iter=1,
		weight=1];
	22 -> 23	 [iter=1,
		weight="0.5"];
	23 -> 24	 [iter=1,
		weight="0.5"];
	24 -> 25	 [iter=1,
		weight="0.5"];
	25 -> 26	 [iter=1,
		weight="0.5"];
	26 -> 27	 [iter=1,
		weight="0.5"];
	27 -> 28	 [iter=1,
		weight="0.5"];
	28 -> 29	 [iter=1,
		weight="0.5"];
	29 -> 30	 [iter=1,
		weight="0.5"];
	30 -> 31	 [iter=1,
		weight="0.5"];
	31 -> 21	 [iter=1,
		weight=1];
	32 -> 33	 [iter=1,
		weight=1];
	33 -> 54	 [iter=1,
		weight=1];
	36 -> 37	 [iter=1,
		weight=1];
	37 -> 38	 [iter=1,
		weight=1];
	38 -> 39	 [iter=1,
		weight=1];
	39 -> 40	 [iter=1,
		weight=1];
	40 -> 41	 [iter=1,
		weight=1];
	41 -> 21	 [iter=1,
		weight=1];
	42 -> 43	 [iter=1,
		weight=1];
	43 -> 44	 [iter=1,
		weight=1];
	44 -> 45	 [iter=1,
		weight=1];
	45 -> 46	 [iter=1,
		weight=1];
	46 -> 47	 [iter=1,
		weight=1];
	47 -> 48	 [iter=1,
		weight=1];
	48 -> 49	 [iter=1,
		weight=1];
	49 -> 50	 [iter=1,
		weight=1];
	50 -> 51	 [iter=1,
		weight=1];
	51 -> 52	 [iter=1,
		weight=1];
	52 -> 53	 [iter=1,
		weight=1];
	53 -> 36	 [iter=1,
		weight=1];
	53 -> 42	 [iter=17,
		weight=0];
	54 -> 55	 [iter=1,
		weight=1];
	55 -> 56	 [iter=1,
		weight=1];
	56 -> 57	 [iter=1,
		weight=1];
	57 -> 42	 [iter=1,
		weight=1];
	58 -> 59	 [iter=1,
		weight=1];
	59 -> 60	 [iter=1,
		weight=1];
	60 -> 61	 [iter=1,
		weight=1];
	61 -> 62	 [iter=1,
		weight=1];
	62 -> 63	 [iter=1,
		weight=1];
	63 -> 14	 [iter=1,
		weight=1];
}
