Total Regions created: 1
Regions with references to original graph
109: 4, 3, 6, 15, 14, 63, 62, 61, 60, 59, 58, 12, 11, 10, 9, 19, 21, 41, 40, 39, 38, 37, 36, 51, 48, 49, 46, 47, 44, 45, 42, 43, 53, 50, 52, 57, 56, 55, 54, 33, 32, 31, 30, 29, 28, 27, 26, 25, 24, 23, 22, 20, 17, 16, 7, 5, 1
