strict digraph  {
	1 -> 85	 [iter=1,
		weight=1];
	3 -> 4	 [iter=1,
		weight=1];
	4 -> 5	 [iter=1,
		weight=1];
	5 -> 6	 [iter=1,
		weight=1];
	6 -> 38	 [iter=1,
		weight=1];
	8 -> 11	 [iter=1,
		weight=1];
	11 -> 13	 [iter=1,
		weight=1];
	11 -> 23	 [iter=1,
		weight="0.6"];
	12 -> 10	 [iter=1,
		weight=1];
	13 -> 50	 [iter=1,
		weight=1];
	15 -> 16	 [iter=1,
		weight="0.4"];
	16 -> 30	 [iter=1,
		weight=1];
	18 -> 19	 [iter=1,
		weight="0.4"];
	19 -> 20	 [iter=1,
		weight="0.4"];
	20 -> 21	 [iter=1,
		weight="0.4"];
	21 -> 22	 [iter=1,
		weight="0.4"];
	22 -> 12	 [iter=1,
		weight=1];
	23 -> 24	 [iter=1,
		weight=1];
	24 -> 25	 [iter=1,
		weight=1];
	25 -> 26	 [iter=1,
		weight=1];
	26 -> 27	 [iter=1,
		weight=1];
	27 -> 28	 [iter=1,
		weight=1];
	28 -> 29	 [iter=1,
		weight=1];
	29 -> 12	 [iter=1,
		weight=1];
	30 -> 31	 [iter=1,
		weight=1];
	31 -> 46	 [iter=1,
		weight=1];
	33 -> 34	 [iter=1,
		weight=1];
	34 -> 35	 [iter=1,
		weight=1];
	35 -> 36	 [iter=1,
		weight=1];
	36 -> 37	 [iter=1,
		weight=1];
	37 -> 18	 [iter=1,
		weight=1];
	38 -> 39	 [iter=1,
		weight=1];
	39 -> 40	 [iter=1,
		weight=1];
	40 -> 41	 [iter=1,
		weight=1];
	41 -> 42	 [iter=1,
		weight=1];
	42 -> 43	 [iter=1,
		weight=1];
	43 -> 44	 [iter=1,
		weight=1];
	44 -> 45	 [iter=1,
		weight=1];
	45 -> 38	 [iter=37,
		weight=0];
	45 -> 8	 [iter=1,
		weight=1];
	46 -> 47	 [iter=1,
		weight=1];
	47 -> 96	 [iter=1,
		weight=1];
	49 -> 33	 [iter=1,
		weight=1];
	49 -> 46	 [iter=36,
		weight=0];
	50 -> 52	 [iter=1,
		weight=1];
	50 -> 58	 [iter=1,
		weight="0.9"];
	51 -> 15	 [iter=1,
		weight=1];
	52 -> 53	 [iter=1,
		weight="0.1"];
	53 -> 54	 [iter=1,
		weight="0.1"];
	54 -> 55	 [iter=1,
		weight="0.1"];
	55 -> 56	 [iter=1,
		weight="0.1"];
	56 -> 57	 [iter=1,
		weight="0.1"];
	57 -> 51	 [iter=1,
		weight=1];
	58 -> 93	 [iter=1,
		weight=1];
	60 -> 61	 [iter=1,
		weight=1];
	61 -> 62	 [iter=1,
		weight=1];
	62 -> 63	 [iter=1,
		weight=1];
	63 -> 64	 [iter=1,
		weight=1];
	64 -> 66	 [iter=1,
		weight=1];
	66 -> 68	 [iter=1,
		weight=1];
	66 -> 75	 [iter=1,
		weight="0.9"];
	67 -> 51	 [iter=1,
		weight=1];
	68 -> 69	 [iter=1,
		weight="0.1"];
	69 -> 112	 [iter=1,
		weight=1];
	71 -> 72	 [iter=1,
		weight="0.1"];
	72 -> 73	 [iter=1,
		weight="0.1"];
	73 -> 74	 [iter=1,
		weight="0.1"];
	74 -> 67	 [iter=1,
		weight=1];
	75 -> 76	 [iter=1,
		weight=1];
	76 -> 77	 [iter=1,
		weight=1];
	77 -> 78	 [iter=1,
		weight=1];
	78 -> 79	 [iter=1,
		weight=1];
	79 -> 103	 [iter=1,
		weight=1];
	81 -> 82	 [iter=1,
		weight=1];
	82 -> 83	 [iter=1,
		weight=1];
	83 -> 84	 [iter=1,
		weight=1];
	84 -> 67	 [iter=1,
		weight=1];
	85 -> 86	 [iter=1,
		weight=1];
	86 -> 87	 [iter=1,
		weight=1];
	87 -> 88	 [iter=1,
		weight=1];
	88 -> 89	 [iter=1,
		weight=1];
	89 -> 90	 [iter=1,
		weight=1];
	90 -> 91	 [iter=1,
		weight=1];
	91 -> 92	 [iter=1,
		weight=1];
	92 -> 3	 [iter=1,
		weight=1];
	93 -> 94	 [iter=1,
		weight=1];
	94 -> 95	 [iter=1,
		weight=1];
	95 -> 60	 [iter=1,
		weight=1];
	95 -> 93	 [iter=23,
		weight=0];
	96 -> 97	 [iter=1,
		weight=1];
	97 -> 98	 [iter=1,
		weight=1];
	98 -> 99	 [iter=1,
		weight=1];
	99 -> 100	 [iter=1,
		weight=1];
	100 -> 101	 [iter=1,
		weight=1];
	101 -> 102	 [iter=1,
		weight=1];
	102 -> 49	 [iter=1,
		weight=1];
	103 -> 104	 [iter=1,
		weight=1];
	104 -> 105	 [iter=1,
		weight=1];
	105 -> 106	 [iter=1,
		weight=1];
	106 -> 107	 [iter=1,
		weight=1];
	107 -> 108	 [iter=1,
		weight=1];
	108 -> 109	 [iter=1,
		weight=1];
	109 -> 110	 [iter=1,
		weight=1];
	110 -> 111	 [iter=1,
		weight=1];
	111 -> 81	 [iter=1,
		weight=1];
	111 -> 103	 [iter=39,
		weight=0];
	112 -> 113	 [iter=1,
		weight=1];
	113 -> 114	 [iter=1,
		weight=1];
	114 -> 71	 [iter=1,
		weight=1];
	114 -> 112	 [iter=27,
		weight=0];
}
