strict digraph  {
	190	 [iter=1,
		prob="1.0",
		ref="74, 73, 72, 71, 114, 113, 112, 69, 68, 66, 64, 63, 62, 61, 60, 93, 95, 94, 58, 2\
9, 28, 27, 26, 25, 24, 23, 57, 56, 55, 54, 53, 52, 50, 13, 11, 8, 39, 38, 44, 45\
, 42, 43, 40, 41, 6, 5, 4, 3, 92, 91, 90, 89, 88, 87, 86, 85, 1",
		size=57,
		sum=57];
	192	 [iter=1,
		prob="0.81",
		ref="10, 12, 22, 21, 20, 19, 18, 37, 36, 35, 34, 33, 49, 46, 47, 99, 98, 102, 100, 10\
1, 97, 96, 31, 30, 16, 15, 51, 67, 84, 83, 82, 81, 108, 109, 111, 110, 103, 106,\
 107, 104, 105, 79, 78, 77, 76, 75",
		size=46,
		sum=46];
	190 -> 192;
}
