strict digraph  {
	122	 [ref="1, 85, 86, 87, 88, 89, 90, 91, 92, 3, 4, 5, 6, 39, 38, 44, 45, 42, 43, 40, 41, 8\
, 11, 13, 50, 58, 52, 93, 95, 94, 53, 60, 54, 61, 55, 62, 56, 63, 57, 64, 51, 66\
, 68, 75, 69, 76, 114, 113, 112, 77, 71, 78, 72, 79, 73, 108, 109, 111, 110, 103\
, 106, 107, 104, 105, 74, 81, 67, 82, 83, 84, 15, 16, 30, 31",
		size=74];
	123	 [ref="33, 34, 35, 36, 37, 18, 19, 23, 20, 21, 22, 24, 25, 26, 27, 28, 29, 12, 10",
		size=19];
	122 -> 123	 [weight=1];
	115	 [ref="49, 46, 47, 99, 98, 102, 100, 101, 97, 96",
		size=10];
	122 -> 115	 [weight=1];
	115 -> 123	 [weight=1];
}
