strict digraph  {
	60	 [ref=60,
		size=1];
	69	 [ref="45, 37, 38",
		size=3];
	60 -> 69	 [weight=1];
	61	 [ref="1, 23, 27",
		size=3];
	25	 [ref=25,
		size=1];
	61 -> 25	 [weight=1];
	62	 [ref="26, 28, 24",
		size=3];
	61 -> 62	 [weight=1];
	3	 [ref=3,
		size=1];
	62 -> 3	 [weight=1];
	63	 [ref="4, 8, 29",
		size=3];
	31	 [ref=31,
		size=1];
	63 -> 31	 [weight=1];
	35	 [ref=35,
		size=1];
	63 -> 35	 [weight=1];
	64	 [ref="32, 33, 34",
		size=3];
	71	 [ref="30, 13, 14",
		size=3];
	64 -> 71	 [weight=1];
	65	 [ref="44, 46, 47",
		size=3];
	35 -> 65	 [weight=1];
	66	 [ref="49, 50, 51",
		size=3];
	52	 [ref=52,
		size=1];
	66 -> 52	 [weight=1];
	67	 [ref="53, 54, 55",
		size=3];
	56	 [ref=56,
		size=1];
	67 -> 56	 [weight=1];
	68	 [ref="57, 58, 59",
		size=3];
	68 -> 60	 [weight=1];
	39	 [ref=39,
		size=1];
	69 -> 39	 [weight=1];
	72	 [ref="16, 17, 18",
		size=3];
	19	 [ref=19,
		size=1];
	72 -> 19	 [weight=1];
	25 -> 62	 [weight=1];
	48	 [ref=48,
		size=1];
	48 -> 66	 [weight=1];
	43	 [ref=43,
		size=1];
	43 -> 71	 [weight=1];
	3 -> 63	 [weight=1];
	70	 [ref="40, 41, 42",
		size=3];
	39 -> 70	 [weight=1];
	73	 [ref="20, 21, 22",
		size=3];
	11	 [ref=11,
		size=1];
	73 -> 11	 [weight=1];
	15	 [ref=15,
		size=1];
	71 -> 15	 [weight=1];
	70 -> 43	 [weight=1];
	15 -> 72	 [weight=1];
	74	 [ref="12, 6, 7",
		size=3];
	11 -> 74	 [weight=1];
	56 -> 69	 [weight=1];
	52 -> 67	 [weight=1];
	19 -> 73	 [weight=1];
	31 -> 64	 [weight=1];
	65 -> 48	 [weight=1];
	65 -> 68	 [weight=1];
}
