Total Regions created: 19
Regions with references to original graph
62: 29, 8, 4
89: 54, 53, 52
67: 33, 32, 31
82: 15, 14, 13
83: 11, 22
72: 28, 27
80: 7, 6, 12
85: 42, 41, 40
87: 39, 38, 37
76: 21, 20, 19
71: 57, 44, 35
70: 48, 47, 46
90: 3, 24, 26
92: 60, 59, 58
95: 30, 43, 34
79: 18, 17, 16
96: 45, 56, 55
74: 51, 50, 49
65: 25, 23, 1
