strict digraph  {
	136	 [iter=1,
		prob="0.5829463312",
		ref="6, 5, 54, 66, 65, 64, 63, 62, 61, 60, 59, 58, 68, 77, 72, 76, 75, 74, 73, 71, 70\
, 69, 67, 56, 55, 53, 17, 16, 15, 14, 13, 12, 11, 24, 25, 26, 27, 20, 21, 22, 23\
, 19, 18, 28, 29, 9, 8, 7, 34, 33, 32, 36, 52, 51, 50, 49, 48, 47, 46, 45, 44, 4\
3, 42, 41, 40, 39, 38, 37, 35, 30, 1",
		size=71,
		sum=71];
}
