strict digraph  {
	1 -> 23	 [weight=1];
	3 -> 8	 [weight=1];
	5 -> 6	 [weight=1];
	6 -> 7	 [weight=1];
	8 -> 20	 [weight=1];
	10 -> 11	 [weight=1];
	11 -> 12	 [weight=1];
	12 -> 13	 [weight=1];
	13 -> 16	 [weight=1];
	15 -> 5	 [weight=1];
	15 -> 8	 [weight=0];
	16 -> 17	 [weight=1];
	17 -> 18	 [weight=1];
	18 -> 19	 [weight=1];
	19 -> 15	 [weight=1];
	19 -> 16	 [weight=0];
	20 -> 28	 [weight=1];
	22 -> 20	 [weight=0];
	22 -> 10	 [weight=1];
	23 -> 24	 [weight=1];
	24 -> 25	 [weight=1];
	25 -> 26	 [weight=1];
	26 -> 27	 [weight=1];
	27 -> 23	 [weight=0];
	27 -> 3	 [weight=1];
	28 -> 41	 [weight=1];
	28 -> 30	 [weight=1];
	29 -> 22	 [weight=1];
	30 -> 31	 [weight=1];
	31 -> 49	 [weight=1];
	33 -> 54	 [weight=1];
	36 -> 37	 [weight=1];
	37 -> 38	 [weight=1];
	38 -> 39	 [weight=1];
	39 -> 40	 [weight=1];
	40 -> 29	 [weight=1];
	41 -> 42	 [weight=1];
	42 -> 43	 [weight=1];
	43 -> 29	 [weight=1];
	44 -> 45	 [weight=1];
	45 -> 46	 [weight=1];
	46 -> 47	 [weight=1];
	47 -> 48	 [weight=1];
	48 -> 36	 [weight=1];
	49 -> 50	 [weight=1];
	50 -> 51	 [weight=1];
	51 -> 52	 [weight=1];
	52 -> 53	 [weight=1];
	53 -> 33	 [weight=1];
	54 -> 55	 [weight=1];
	55 -> 56	 [weight=1];
	56 -> 57	 [weight=1];
	57 -> 58	 [weight=1];
	58 -> 59	 [weight=1];
	59 -> 60	 [weight=1];
	60 -> 44	 [weight=1];
	60 -> 54	 [weight=0];
}
