strict digraph  {
	1 -> 2	 [weight=1];
	2 -> 13	 [weight=1];
	5 -> 6	 [weight=1];
	6 -> 7	 [weight=1];
	7 -> 8	 [weight=1];
	8 -> 9	 [weight=1];
	9 -> 10	 [weight=1];
	10 -> 109	 [weight=1];
	13 -> 22	 [weight=1];
	13 -> 15	 [weight=1];
	14 -> 30	 [weight=1];
	15 -> 16	 [weight=1];
	16 -> 17	 [weight=1];
	17 -> 18	 [weight=1];
	18 -> 19	 [weight=1];
	19 -> 116	 [weight=1];
	21 -> 14	 [weight=1];
	22 -> 23	 [weight=1];
	23 -> 24	 [weight=1];
	24 -> 37	 [weight=1];
	26 -> 47	 [weight=1];
	28 -> 29	 [weight=1];
	29 -> 14	 [weight=1];
	30 -> 31	 [weight=1];
	31 -> 32	 [weight=1];
	32 -> 33	 [weight=1];
	33 -> 34	 [weight=1];
	34 -> 35	 [weight=1];
	35 -> 36	 [weight=1];
	36 -> 5	 [weight=1];
	36 -> 30	 [weight=0];
	37 -> 38	 [weight=1];
	38 -> 39	 [weight=1];
	39 -> 40	 [weight=1];
	40 -> 41	 [weight=1];
	41 -> 42	 [weight=1];
	42 -> 43	 [weight=1];
	43 -> 44	 [weight=1];
	44 -> 45	 [weight=1];
	45 -> 46	 [weight=1];
	46 -> 26	 [weight=1];
	46 -> 37	 [weight=0];
	47 -> 49	 [weight=1];
	47 -> 60	 [weight=1];
	48 -> 28	 [weight=1];
	49 -> 50	 [weight=1];
	50 -> 51	 [weight=1];
	51 -> 70	 [weight=1];
	53 -> 54	 [weight=1];
	54 -> 55	 [weight=1];
	55 -> 56	 [weight=1];
	56 -> 57	 [weight=1];
	57 -> 58	 [weight=1];
	58 -> 59	 [weight=1];
	59 -> 48	 [weight=1];
	60 -> 61	 [weight=1];
	61 -> 62	 [weight=1];
	62 -> 63	 [weight=1];
	63 -> 64	 [weight=1];
	64 -> 77	 [weight=1];
	66 -> 67	 [weight=1];
	67 -> 68	 [weight=1];
	68 -> 69	 [weight=1];
	69 -> 48	 [weight=1];
	70 -> 71	 [weight=1];
	71 -> 72	 [weight=1];
	72 -> 73	 [weight=1];
	73 -> 74	 [weight=1];
	74 -> 75	 [weight=1];
	75 -> 76	 [weight=1];
	76 -> 53	 [weight=1];
	76 -> 70	 [weight=0];
	77 -> 79	 [weight=1];
	77 -> 86	 [weight=1];
	78 -> 66	 [weight=1];
	79 -> 80	 [weight=1];
	80 -> 93	 [weight=1];
	82 -> 83	 [weight=1];
	83 -> 84	 [weight=1];
	84 -> 85	 [weight=1];
	85 -> 78	 [weight=1];
	86 -> 87	 [weight=1];
	87 -> 88	 [weight=1];
	88 -> 89	 [weight=1];
	89 -> 90	 [weight=1];
	90 -> 91	 [weight=1];
	91 -> 92	 [weight=1];
	92 -> 78	 [weight=1];
	93 -> 95	 [weight=1];
	93 -> 98	 [weight=1];
	94 -> 82	 [weight=1];
	95 -> 96	 [weight=1];
	96 -> 97	 [weight=1];
	97 -> 94	 [weight=1];
	98 -> 99	 [weight=1];
	99 -> 100	 [weight=1];
	100 -> 101	 [weight=1];
	101 -> 102	 [weight=1];
	102 -> 103	 [weight=1];
	103 -> 104	 [weight=1];
	104 -> 105	 [weight=1];
	105 -> 106	 [weight=1];
	106 -> 107	 [weight=1];
	107 -> 108	 [weight=1];
	108 -> 94	 [weight=1];
	109 -> 110	 [weight=1];
	110 -> 111	 [weight=1];
	111 -> 112	 [weight=1];
	112 -> 113	 [weight=1];
	113 -> 114	 [weight=1];
	114 -> 115	 [weight=1];
	115 -> 109	 [weight=0];
	115 -> 12	 [weight=1];
	116 -> 117	 [weight=1];
	117 -> 118	 [weight=1];
	118 -> 119	 [weight=1];
	119 -> 120	 [weight=1];
	120 -> 121	 [weight=1];
	121 -> 122	 [weight=1];
	122 -> 123	 [weight=1];
	123 -> 124	 [weight=1];
	124 -> 125	 [weight=1];
	125 -> 126	 [weight=1];
	126 -> 21	 [weight=1];
	126 -> 116	 [weight=0];
}
