strict digraph  {
	1 -> 11	 [weight=1];
	3 -> 4	 [weight=1];
	4 -> 15	 [weight=1];
	6 -> 7	 [weight=1];
	7 -> 8	 [weight=1];
	8 -> 9	 [weight=1];
	9 -> 10	 [weight=1];
	11 -> 25	 [weight=1];
	14 -> 11	 [weight=0];
	14 -> 3	 [weight=1];
	15 -> 20	 [weight=1];
	17 -> 33	 [weight=1];
	19 -> 6	 [weight=1];
	20 -> 21	 [weight=1];
	21 -> 22	 [weight=1];
	22 -> 23	 [weight=1];
	23 -> 24	 [weight=1];
	24 -> 17	 [weight=1];
	24 -> 20	 [weight=0];
	25 -> 63	 [weight=1];
	27 -> 102	 [weight=1];
	29 -> 47	 [weight=1];
	31 -> 32	 [weight=1];
	32 -> 89	 [weight=1];
	33 -> 35	 [weight=1];
	33 -> 45	 [weight=1];
	34 -> 19	 [weight=1];
	35 -> 36	 [weight=1];
	36 -> 37	 [weight=1];
	37 -> 38	 [weight=1];
	38 -> 39	 [weight=1];
	39 -> 40	 [weight=1];
	40 -> 41	 [weight=1];
	41 -> 42	 [weight=1];
	42 -> 43	 [weight=1];
	43 -> 44	 [weight=1];
	44 -> 34	 [weight=1];
	45 -> 46	 [weight=1];
	46 -> 34	 [weight=1];
	47 -> 48	 [weight=1];
	48 -> 49	 [weight=1];
	49 -> 50	 [weight=1];
	50 -> 51	 [weight=1];
	51 -> 52	 [weight=1];
	52 -> 53	 [weight=1];
	53 -> 54	 [weight=1];
	54 -> 93	 [weight=1];
	56 -> 59	 [weight=1];
	58 -> 31	 [weight=1];
	59 -> 60	 [weight=1];
	60 -> 61	 [weight=1];
	61 -> 62	 [weight=1];
	62 -> 58	 [weight=1];
	63 -> 75	 [weight=1];
	63 -> 65	 [weight=1];
	64 -> 27	 [weight=1];
	65 -> 66	 [weight=1];
	66 -> 67	 [weight=1];
	67 -> 68	 [weight=1];
	68 -> 69	 [weight=1];
	69 -> 70	 [weight=1];
	70 -> 71	 [weight=1];
	71 -> 76	 [weight=1];
	73 -> 74	 [weight=1];
	74 -> 64	 [weight=1];
	75 -> 64	 [weight=1];
	76 -> 78	 [weight=1];
	76 -> 84	 [weight=1];
	77 -> 73	 [weight=1];
	78 -> 79	 [weight=1];
	79 -> 80	 [weight=1];
	80 -> 81	 [weight=1];
	81 -> 82	 [weight=1];
	82 -> 83	 [weight=1];
	83 -> 77	 [weight=1];
	84 -> 85	 [weight=1];
	85 -> 86	 [weight=1];
	86 -> 87	 [weight=1];
	87 -> 88	 [weight=1];
	88 -> 77	 [weight=1];
	89 -> 90	 [weight=1];
	90 -> 91	 [weight=1];
	91 -> 92	 [weight=1];
	92 -> 14	 [weight=1];
	92 -> 89	 [weight=0];
	93 -> 94	 [weight=1];
	94 -> 95	 [weight=1];
	95 -> 96	 [weight=1];
	96 -> 97	 [weight=1];
	97 -> 98	 [weight=1];
	98 -> 99	 [weight=1];
	99 -> 100	 [weight=1];
	100 -> 101	 [weight=1];
	101 -> 56	 [weight=1];
	102 -> 103	 [weight=1];
	103 -> 104	 [weight=1];
	104 -> 105	 [weight=1];
	105 -> 106	 [weight=1];
	106 -> 107	 [weight=1];
	107 -> 108	 [weight=1];
	108 -> 109	 [weight=1];
	109 -> 110	 [weight=1];
	110 -> 111	 [weight=1];
	111 -> 112	 [weight=1];
	112 -> 113	 [weight=1];
	113 -> 29	 [weight=1];
}
