strict digraph  {
	1 -> 2	 [weight=1];
	2 -> 3	 [weight=1];
	3 -> 4	 [weight=1];
	4 -> 35	 [weight=1];
	6 -> 7	 [weight=1];
	7 -> 8	 [weight=1];
	8 -> 9	 [weight=1];
	9 -> 12	 [weight=1];
	12 -> 14	 [weight=1];
	12 -> 24	 [weight=1];
	13 -> 11	 [weight=1];
	14 -> 15	 [weight=1];
	15 -> 16	 [weight=1];
	16 -> 17	 [weight=1];
	17 -> 18	 [weight=1];
	18 -> 19	 [weight=1];
	19 -> 20	 [weight=1];
	20 -> 21	 [weight=1];
	21 -> 22	 [weight=1];
	22 -> 23	 [weight=1];
	23 -> 13	 [weight=1];
	24 -> 25	 [weight=1];
	25 -> 26	 [weight=1];
	26 -> 27	 [weight=1];
	27 -> 28	 [weight=1];
	28 -> 69	 [weight=1];
	30 -> 31	 [weight=1];
	31 -> 32	 [weight=1];
	32 -> 33	 [weight=1];
	33 -> 46	 [weight=1];
	35 -> 36	 [weight=1];
	36 -> 37	 [weight=1];
	37 -> 38	 [weight=1];
	38 -> 39	 [weight=1];
	39 -> 40	 [weight=1];
	40 -> 41	 [weight=1];
	41 -> 42	 [weight=1];
	42 -> 43	 [weight=1];
	43 -> 54	 [weight=1];
	45 -> 6	 [weight=1];
	46 -> 47	 [weight=1];
	47 -> 48	 [weight=1];
	48 -> 49	 [weight=1];
	49 -> 50	 [weight=1];
	50 -> 51	 [weight=1];
	51 -> 52	 [weight=1];
	52 -> 53	 [weight=1];
	53 -> 13	 [weight=1];
	54 -> 56	 [weight=1];
	54 -> 62	 [weight=1];
	55 -> 45	 [weight=1];
	56 -> 94	 [weight=1];
	58 -> 59	 [weight=1];
	59 -> 60	 [weight=1];
	60 -> 61	 [weight=1];
	61 -> 55	 [weight=1];
	62 -> 63	 [weight=1];
	63 -> 64	 [weight=1];
	64 -> 65	 [weight=1];
	65 -> 66	 [weight=1];
	66 -> 80	 [weight=1];
	68 -> 55	 [weight=1];
	69 -> 75	 [weight=1];
	71 -> 72	 [weight=1];
	72 -> 73	 [weight=1];
	73 -> 74	 [weight=1];
	74 -> 30	 [weight=1];
	75 -> 76	 [weight=1];
	76 -> 77	 [weight=1];
	77 -> 78	 [weight=1];
	78 -> 79	 [weight=1];
	79 -> 71	 [weight=1];
	80 -> 84	 [weight=1];
	80 -> 82	 [weight=1];
	81 -> 68	 [weight=1];
	82 -> 83	 [weight=1];
	83 -> 81	 [weight=1];
	84 -> 85	 [weight=1];
	85 -> 86	 [weight=1];
	86 -> 87	 [weight=1];
	87 -> 88	 [weight=1];
	88 -> 89	 [weight=1];
	89 -> 90	 [weight=1];
	90 -> 91	 [weight=1];
	91 -> 92	 [weight=1];
	92 -> 93	 [weight=1];
	93 -> 81	 [weight=1];
	94 -> 95	 [weight=1];
	95 -> 96	 [weight=1];
	96 -> 97	 [weight=1];
	97 -> 58	 [weight=1];
}
