strict digraph  {
	1 -> 2	 [weight=1];
	2 -> 5	 [weight=1];
	5 -> 6	 [weight=1];
	6 -> 7	 [weight=1];
	7 -> 8	 [weight=1];
	8 -> 9	 [weight=1];
	9 -> 21	 [weight=1];
	11 -> 12	 [weight=1];
	12 -> 28	 [weight=1];
	15 -> 4	 [weight=1];
	16 -> 18	 [weight=1];
	16 -> 20	 [weight=1];
	17 -> 15	 [weight=1];
	18 -> 19	 [weight=1];
	19 -> 17	 [weight=1];
	20 -> 17	 [weight=1];
	21 -> 22	 [weight=1];
	22 -> 23	 [weight=1];
	23 -> 24	 [weight=1];
	24 -> 25	 [weight=1];
	25 -> 40	 [weight=1];
	27 -> 11	 [weight=1];
	27 -> 21	 [weight=0];
	28 -> 29	 [weight=1];
	29 -> 30	 [weight=1];
	30 -> 59	 [weight=1];
	32 -> 33	 [weight=1];
	33 -> 34	 [weight=1];
	34 -> 35	 [weight=1];
	35 -> 36	 [weight=1];
	36 -> 37	 [weight=1];
	37 -> 38	 [weight=1];
	38 -> 39	 [weight=1];
	39 -> 16	 [weight=1];
	40 -> 42	 [weight=1];
	40 -> 49	 [weight=1];
	41 -> 27	 [weight=1];
	42 -> 43	 [weight=1];
	43 -> 63	 [weight=1];
	45 -> 46	 [weight=1];
	46 -> 47	 [weight=1];
	47 -> 48	 [weight=1];
	48 -> 41	 [weight=1];
	49 -> 50	 [weight=1];
	50 -> 51	 [weight=1];
	51 -> 52	 [weight=1];
	52 -> 53	 [weight=1];
	53 -> 54	 [weight=1];
	54 -> 79	 [weight=1];
	56 -> 57	 [weight=1];
	57 -> 58	 [weight=1];
	58 -> 41	 [weight=1];
	59 -> 60	 [weight=1];
	60 -> 61	 [weight=1];
	61 -> 62	 [weight=1];
	62 -> 32	 [weight=1];
	63 -> 64	 [weight=1];
	64 -> 70	 [weight=1];
	66 -> 67	 [weight=1];
	67 -> 68	 [weight=1];
	68 -> 69	 [weight=1];
	69 -> 45	 [weight=1];
	70 -> 71	 [weight=1];
	71 -> 72	 [weight=1];
	72 -> 73	 [weight=1];
	73 -> 74	 [weight=1];
	74 -> 75	 [weight=1];
	75 -> 76	 [weight=1];
	76 -> 77	 [weight=1];
	77 -> 78	 [weight=1];
	78 -> 66	 [weight=1];
	78 -> 70	 [weight=0];
	79 -> 80	 [weight=1];
	80 -> 81	 [weight=1];
	81 -> 82	 [weight=1];
	82 -> 83	 [weight=1];
	83 -> 84	 [weight=1];
	84 -> 85	 [weight=1];
	85 -> 86	 [weight=1];
	86 -> 87	 [weight=1];
	87 -> 88	 [weight=1];
	88 -> 89	 [weight=1];
	89 -> 56	 [weight=1];
	89 -> 79	 [weight=0];
}
