strict digraph  {
	1 -> 6	 [weight=1];
	4 -> 5	 [weight=1];
	6 -> 8	 [weight=1];
	6 -> 14	 [weight=1];
	7 -> 24	 [weight=1];
	8 -> 16	 [weight=1];
	10 -> 11	 [weight=1];
	11 -> 12	 [weight=1];
	12 -> 13	 [weight=1];
	13 -> 7	 [weight=1];
	14 -> 15	 [weight=1];
	15 -> 7	 [weight=1];
	16 -> 18	 [weight=1];
	16 -> 23	 [weight=1];
	17 -> 10	 [weight=1];
	18 -> 34	 [weight=1];
	20 -> 21	 [weight=1];
	21 -> 22	 [weight=1];
	22 -> 17	 [weight=1];
	23 -> 17	 [weight=1];
	24 -> 26	 [weight=1];
	24 -> 31	 [weight=1];
	25 -> 4	 [weight=1];
	26 -> 132	 [weight=1];
	28 -> 29	 [weight=1];
	29 -> 67	 [weight=1];
	31 -> 32	 [weight=1];
	32 -> 33	 [weight=1];
	33 -> 25	 [weight=1];
	34 -> 36	 [weight=1];
	34 -> 46	 [weight=1];
	35 -> 20	 [weight=1];
	36 -> 37	 [weight=1];
	37 -> 38	 [weight=1];
	38 -> 39	 [weight=1];
	39 -> 40	 [weight=1];
	40 -> 41	 [weight=1];
	41 -> 42	 [weight=1];
	42 -> 43	 [weight=1];
	43 -> 44	 [weight=1];
	44 -> 45	 [weight=1];
	45 -> 35	 [weight=1];
	46 -> 106	 [weight=1];
	48 -> 49	 [weight=1];
	49 -> 50	 [weight=1];
	50 -> 125	 [weight=1];
	52 -> 53	 [weight=1];
	53 -> 54	 [weight=1];
	54 -> 56	 [weight=1];
	56 -> 62	 [weight=1];
	56 -> 58	 [weight=1];
	57 -> 35	 [weight=1];
	58 -> 59	 [weight=1];
	59 -> 60	 [weight=1];
	60 -> 61	 [weight=1];
	61 -> 57	 [weight=1];
	62 -> 80	 [weight=1];
	64 -> 65	 [weight=1];
	65 -> 66	 [weight=1];
	66 -> 57	 [weight=1];
	67 -> 68	 [weight=1];
	68 -> 72	 [weight=1];
	70 -> 71	 [weight=1];
	71 -> 25	 [weight=1];
	72 -> 73	 [weight=1];
	73 -> 86	 [weight=1];
	75 -> 76	 [weight=1];
	76 -> 77	 [weight=1];
	77 -> 78	 [weight=1];
	78 -> 79	 [weight=1];
	79 -> 70	 [weight=1];
	79 -> 72	 [weight=0];
	80 -> 81	 [weight=1];
	81 -> 82	 [weight=1];
	82 -> 83	 [weight=1];
	83 -> 84	 [weight=1];
	84 -> 85	 [weight=1];
	85 -> 80	 [weight=0];
	85 -> 64	 [weight=1];
	86 -> 88	 [weight=1];
	86 -> 96	 [weight=1];
	87 -> 75	 [weight=1];
	88 -> 89	 [weight=1];
	89 -> 90	 [weight=1];
	90 -> 91	 [weight=1];
	91 -> 92	 [weight=1];
	92 -> 93	 [weight=1];
	93 -> 118	 [weight=1];
	95 -> 87	 [weight=1];
	96 -> 97	 [weight=1];
	97 -> 98	 [weight=1];
	98 -> 99	 [weight=1];
	99 -> 100	 [weight=1];
	100 -> 101	 [weight=1];
	101 -> 102	 [weight=1];
	102 -> 103	 [weight=1];
	103 -> 104	 [weight=1];
	104 -> 105	 [weight=1];
	105 -> 87	 [weight=1];
	106 -> 107	 [weight=1];
	107 -> 108	 [weight=1];
	108 -> 109	 [weight=1];
	109 -> 110	 [weight=1];
	110 -> 111	 [weight=1];
	111 -> 112	 [weight=1];
	112 -> 113	 [weight=1];
	113 -> 114	 [weight=1];
	114 -> 115	 [weight=1];
	115 -> 116	 [weight=1];
	116 -> 117	 [weight=1];
	117 -> 48	 [weight=1];
	118 -> 119	 [weight=1];
	119 -> 120	 [weight=1];
	120 -> 121	 [weight=1];
	121 -> 122	 [weight=1];
	122 -> 123	 [weight=1];
	123 -> 124	 [weight=1];
	124 -> 95	 [weight=1];
	125 -> 127	 [weight=1];
	125 -> 129	 [weight=1];
	126 -> 52	 [weight=1];
	127 -> 128	 [weight=1];
	128 -> 126	 [weight=1];
	129 -> 130	 [weight=1];
	130 -> 131	 [weight=1];
	131 -> 126	 [weight=1];
	132 -> 133	 [weight=1];
	133 -> 134	 [weight=1];
	134 -> 135	 [weight=1];
	135 -> 136	 [weight=1];
	136 -> 137	 [weight=1];
	137 -> 28	 [weight=1];
	137 -> 132	 [weight=0];
}
