strict digraph  {
	1 -> 2	 [weight=1];
	2 -> 3	 [weight=1];
	3 -> 12	 [weight=1];
	6 -> 7	 [weight=1];
	7 -> 8	 [weight=1];
	8 -> 9	 [weight=1];
	9 -> 10	 [weight=1];
	10 -> 11	 [weight=1];
	12 -> 14	 [weight=1];
	12 -> 21	 [weight=1];
	13 -> 121	 [weight=1];
	14 -> 69	 [weight=1];
	16 -> 17	 [weight=1];
	17 -> 109	 [weight=1];
	19 -> 20	 [weight=1];
	20 -> 13	 [weight=1];
	21 -> 22	 [weight=1];
	22 -> 23	 [weight=1];
	23 -> 24	 [weight=1];
	24 -> 127	 [weight=1];
	26 -> 27	 [weight=1];
	27 -> 32	 [weight=1];
	29 -> 30	 [weight=1];
	30 -> 78	 [weight=1];
	32 -> 34	 [weight=1];
	32 -> 43	 [weight=1];
	33 -> 29	 [weight=1];
	34 -> 35	 [weight=1];
	35 -> 36	 [weight=1];
	36 -> 37	 [weight=1];
	37 -> 38	 [weight=1];
	38 -> 39	 [weight=1];
	39 -> 40	 [weight=1];
	40 -> 41	 [weight=1];
	41 -> 57	 [weight=1];
	43 -> 44	 [weight=1];
	44 -> 47	 [weight=1];
	46 -> 33	 [weight=1];
	47 -> 48	 [weight=1];
	48 -> 94	 [weight=1];
	50 -> 51	 [weight=1];
	51 -> 52	 [weight=1];
	52 -> 53	 [weight=1];
	53 -> 54	 [weight=1];
	54 -> 55	 [weight=1];
	55 -> 56	 [weight=1];
	56 -> 47	 [weight=0];
	56 -> 46	 [weight=1];
	57 -> 59	 [weight=1];
	57 -> 68	 [weight=1];
	58 -> 33	 [weight=1];
	59 -> 60	 [weight=1];
	60 -> 61	 [weight=1];
	61 -> 62	 [weight=1];
	62 -> 63	 [weight=1];
	63 -> 64	 [weight=1];
	64 -> 65	 [weight=1];
	65 -> 66	 [weight=1];
	66 -> 67	 [weight=1];
	67 -> 58	 [weight=1];
	68 -> 58	 [weight=1];
	69 -> 74	 [weight=1];
	69 -> 71	 [weight=1];
	70 -> 16	 [weight=1];
	71 -> 72	 [weight=1];
	72 -> 73	 [weight=1];
	73 -> 70	 [weight=1];
	74 -> 90	 [weight=1];
	76 -> 77	 [weight=1];
	77 -> 70	 [weight=1];
	78 -> 79	 [weight=1];
	79 -> 80	 [weight=1];
	80 -> 81	 [weight=1];
	81 -> 82	 [weight=1];
	82 -> 83	 [weight=1];
	83 -> 84	 [weight=1];
	84 -> 85	 [weight=1];
	85 -> 86	 [weight=1];
	86 -> 87	 [weight=1];
	87 -> 88	 [weight=1];
	88 -> 89	 [weight=1];
	89 -> 13	 [weight=1];
	89 -> 78	 [weight=0];
	90 -> 91	 [weight=1];
	91 -> 92	 [weight=1];
	92 -> 93	 [weight=1];
	93 -> 76	 [weight=1];
	93 -> 90	 [weight=0];
	94 -> 104	 [weight=1];
	94 -> 96	 [weight=1];
	95 -> 50	 [weight=1];
	96 -> 97	 [weight=1];
	97 -> 139	 [weight=1];
	99 -> 100	 [weight=1];
	100 -> 101	 [weight=1];
	101 -> 102	 [weight=1];
	102 -> 103	 [weight=1];
	103 -> 95	 [weight=1];
	104 -> 105	 [weight=1];
	105 -> 106	 [weight=1];
	106 -> 107	 [weight=1];
	107 -> 108	 [weight=1];
	108 -> 95	 [weight=1];
	109 -> 110	 [weight=1];
	110 -> 111	 [weight=1];
	111 -> 112	 [weight=1];
	112 -> 113	 [weight=1];
	113 -> 114	 [weight=1];
	114 -> 115	 [weight=1];
	115 -> 116	 [weight=1];
	116 -> 117	 [weight=1];
	117 -> 118	 [weight=1];
	118 -> 119	 [weight=1];
	119 -> 120	 [weight=1];
	120 -> 109	 [weight=0];
	120 -> 19	 [weight=1];
	121 -> 133	 [weight=1];
	123 -> 124	 [weight=1];
	124 -> 125	 [weight=1];
	125 -> 126	 [weight=1];
	126 -> 6	 [weight=1];
	127 -> 128	 [weight=1];
	128 -> 129	 [weight=1];
	129 -> 130	 [weight=1];
	130 -> 131	 [weight=1];
	131 -> 132	 [weight=1];
	132 -> 26	 [weight=1];
	133 -> 134	 [weight=1];
	134 -> 135	 [weight=1];
	135 -> 136	 [weight=1];
	136 -> 137	 [weight=1];
	137 -> 138	 [weight=1];
	138 -> 123	 [weight=1];
	139 -> 140	 [weight=1];
	140 -> 141	 [weight=1];
	141 -> 142	 [weight=1];
	142 -> 143	 [weight=1];
	143 -> 144	 [weight=1];
	144 -> 145	 [weight=1];
	145 -> 146	 [weight=1];
	146 -> 147	 [weight=1];
	147 -> 148	 [weight=1];
	148 -> 149	 [weight=1];
	149 -> 139	 [weight=0];
	149 -> 99	 [weight=1];
}
