strict digraph  {
	182	 [iter=1,
		prob="0.008295424",
		ref="22, 21, 20, 19, 18, 37, 36, 35, 34, 33, 49, 46, 47, 99, 98, 102, 100, 101, 97, 9\
6, 31, 30, 16, 15, 51, 67",
		size=26,
		sum=26];
	163	 [iter=1,
		prob="0.608295424",
		ref="10, 12, 29, 28, 27, 26, 25, 24, 23",
		size=9,
		sum=9];
	182 -> 163;
	186	 [iter=1,
		prob="9e-05",
		ref="74, 73, 72, 71, 114, 113, 112, 69",
		size=8,
		sum=8];
	186 -> 182;
	187	 [iter=1,
		prob="1e-05",
		ref="57, 56, 55, 54, 53",
		size=5,
		sum=5];
	187 -> 182;
	188	 [iter=1,
		prob="1.0",
		ref="68, 66, 64, 63, 62, 61, 60, 93, 95, 94, 58, 52, 50, 13, 11, 8, 39, 38, 44, 45, 4\
2, 43, 40, 41, 6, 5, 4, 3, 92, 91, 90, 89, 88, 87, 86, 85, 1",
		size=37,
		sum=37];
	188 -> 163;
	153	 [iter=1,
		prob="0.81",
		ref="84, 83, 82, 81, 108, 109, 111, 110, 103, 106, 107, 104, 105, 79, 78, 77, 76, 75",
		size=18,
		sum=18];
	188 -> 153;
	188 -> 187;
	188 -> 186;
	153 -> 182;
}
