Total Regions created: 6
Regions with references to original graph
182: 22, 21, 20, 19, 18, 37, 36, 35, 34, 33, 49, 46, 47, 99, 98, 102, 100, 101, 97, 96, 31, 30, 16, 15, 51, 67
186: 74, 73, 72, 71, 114, 113, 112, 69
187: 57, 56, 55, 54, 53
188: 68, 66, 64, 63, 62, 61, 60, 93, 95, 94, 58, 52, 50, 13, 11, 8, 39, 38, 44, 45, 42, 43, 40, 41, 6, 5, 4, 3, 92, 91, 90, 89, 88, 87, 86, 85, 1
163: 10, 12, 29, 28, 27, 26, 25, 24, 23
153: 84, 83, 82, 81, 108, 109, 111, 110, 103, 106, 107, 104, 105, 79, 78, 77, 76, 75
